^C:\USERS\ALEXL\ONEDRIVE\DOCUMENTS\VISUAL STUDIO 2015\PROJECTS\ПРОЕКТ\ПРОЕКТ\DEBUG\SOURCE.OBJ
C:\USERS\ALEXL\ONEDRIVE\DOCUMENTS\VISUAL STUDIO 2015\PROJECTS\Проект\DEBUG\Проект.ILK
C:\USERS\ALEXL\ONEDRIVE\DOCUMENTS\VISUAL STUDIO 2015\PROJECTS\Проект\DEBUG\Проект.EXE
C:\USERS\ALEXL\ONEDRIVE\DOCUMENTS\VISUAL STUDIO 2015\PROJECTS\ПРОЕКТ\DEBUG\ПРОЕКТ.PDB
